{
    "fluentMethods": true,
    "clientRootFolder": "",
    "relationships": [
        {
            "relationshipName": "quiz",
            "otherEntityName": "quiz",
            "relationshipType": "many-to-one",
            "relationshipValidateRules": [
                "required"
            ],
            "otherEntityField": "id"
        }
    ],
    "fields": [
        {
            "fieldName": "nb",
            "fieldType": "Integer",
            "fieldValidateRules": [
                "required",
                "min",
                "max"
            ],
            "fieldValidateRulesMin": 0,
            "fieldValidateRulesMax": "9"
        },
        {
            "fieldName": "title",
            "fieldType": "String",
            "fieldValidateRules": [
                "required"
            ]
        },
        {
            "fieldName": "answer",
            "fieldType": "String",
            "fieldValidateRules": [
                "required"
            ]
        },
        {
            "fieldName": "fake1",
            "fieldType": "String",
            "fieldValidateRules": [
                "required"
            ]
        },
        {
            "fieldName": "fake2",
            "fieldType": "String"
        },
        {
            "fieldName": "fake3",
            "fieldType": "String"
        }
    ],
    "changelogDate": "20191209123028",
    "dto": "no",
    "searchEngine": false,
    "service": "serviceClass",
    "entityTableName": "question",
    "databaseType": "sql",
    "jpaMetamodelFiltering": false,
    "pagination": "no"
}
